/*
object-assign
(c) Sindre Sorhus
@license MIT
*/

/*! ../../utils/createSvgIcon */

/*! ../ButtonBase */

/*! ../Paper */

/*! ../StylesProvider */

/*! ../SvgIcon */

/*! ../ThemeProvider/nested */

/*! ../Typography */

/*! ../arrayLikeToArray/_index.mjs */

/*! ../arrayWithHoles/_index.mjs */

/*! ../arrayWithoutHoles/_index.mjs */

/*! ../assert */

/*! ../colors/blue */

/*! ../colors/common */

/*! ../colors/green */

/*! ../colors/grey */

/*! ../colors/indigo */

/*! ../colors/orange */

/*! ../colors/pink */

/*! ../colors/red */

/*! ../components/use-map-control */

/*! ../constants */

/*! ../createGenerateClassName */

/*! ../getStylesCreator */

/*! ../getStylesCreator/noopTheme */

/*! ../getThemeProps */

/*! ../internal/svg-icons/Person */

/*! ../iterableToArray/_index.mjs */

/*! ../iterableToArrayLimit/_index.mjs */

/*! ../jssPreset */

/*! ../makeStyles */

/*! ../mapbox/mapbox */

/*! ../math-utils */

/*! ../mergeClasses */

/*! ../nonIterableRest/_index.mjs */

/*! ../nonIterableSpread/_index.mjs */

/*! ../objectWithoutPropertiesLoose/_index.mjs */

/*! ../setPrototypeOf/_index.mjs */

/*! ../styles/colorManipulator */

/*! ../styles/withStyles */

/*! ../unsupportedIterableToArray/_index.mjs */

/*! ../useTheme */

/*! ../utils/assert */

/*! ../utils/capitalize */

/*! ../utils/crisp-pixel */

/*! ../utils/deep-equal */

/*! ../utils/dynamic-position */

/*! ../utils/geolocate-utils */

/*! ../utils/globals */

/*! ../utils/map-constraints */

/*! ../utils/map-controller */

/*! ../utils/map-state */

/*! ../utils/mapboxgl */

/*! ../utils/style-utils */

/*! ../utils/transition-manager */

/*! ../utils/use-isomorphic-layout-effect */

/*! ../utils/useEventCallback */

/*! ../utils/useForkRef */

/*! ../utils/useIsFocusVisible */

/*! ../utils/version */

/*! ./ChooseMap */

/*! ./DemoMap */

/*! ./HomePage */

/*! ./InfoMap */

/*! ./OSMap */

/*! ./OSRivers */

/*! ./Ripple */

/*! ./ThemeContext */

/*! ./TouchRipple */

/*! ./TransitionGroupContext */

/*! ./arrayLikeToArray.js */

/*! ./arrayWithHoles.js */

/*! ./arrayWithoutHoles.js */

/*! ./assert */

/*! ./assertThisInitialized.js */

/*! ./breakpoints */

/*! ./cjs/react-dom.production.min.js */

/*! ./cjs/react-is.production.min.js */

/*! ./cjs/react.production.min.js */

/*! ./cjs/scheduler.production.min.js */

/*! ./colorManipulator */

/*! ./common.js */

/*! ./components/App */

/*! ./components/attribution-control */

/*! ./components/base-control */

/*! ./components/fullscreen-control */

/*! ./components/geolocate-control */

/*! ./components/interactive-map */

/*! ./components/layer */

/*! ./components/map-context */

/*! ./components/marker */

/*! ./components/navigation-control */

/*! ./components/popup */

/*! ./components/scale-control */

/*! ./components/source */

/*! ./components/static-map */

/*! ./components/use-map-control */

/*! ./constants */

/*! ./createBreakpoints */

/*! ./createMixins */

/*! ./createMuiTheme */

/*! ./createPalette */

/*! ./createSpacing */

/*! ./createTypography */

/*! ./defaultTheme */

/*! ./draggable-control */

/*! ./event-manager */

/*! ./event-utils */

/*! ./factoryWithThrowingShims */

/*! ./fit-bounds */

/*! ./fly-to-viewport */

/*! ./get-bounds */

/*! ./hammer-overrides */

/*! ./indexCounter */

/*! ./inputs/contextmenu-input */

/*! ./inputs/key-input */

/*! ./inputs/move-input */

/*! ./inputs/wheel-input */

/*! ./iterableToArray.js */

/*! ./iterableToArrayLimit.js */

/*! ./lib/ReactPropTypesSecret */

/*! ./linear-interpolator */

/*! ./map-context */

/*! ./map-state */

/*! ./mapboxgl */

/*! ./math-utils */

/*! ./memoize */

/*! ./merge */

/*! ./multiKeyStore */

/*! ./nonIterableRest.js */

/*! ./nonIterableSpread.js */

/*! ./normalize-viewport-props */

/*! ./objectWithoutPropertiesLoose.js */

/*! ./overlays/canvas-overlay */

/*! ./overlays/html-overlay */

/*! ./overlays/svg-overlay */

/*! ./setPrototypeOf.js */

/*! ./setRef */

/*! ./shadows */

/*! ./shape */

/*! ./static-map */

/*! ./transition */

/*! ./transition-interpolator */

/*! ./transition-manager */

/*! ./transition-utils */

/*! ./transitions */

/*! ./unsupportedIterableToArray.js */

/*! ./use-map-control */

/*! ./utils/ChildMapping */

/*! ./utils/event-registrar */

/*! ./utils/hammer */

/*! ./utils/map-controller */

/*! ./utils/set-rtl-text-plugin */

/*! ./utils/transition */

/*! ./utils/transition-manager */

/*! ./viewport-fly-to-interpolator */

/*! ./web-mercator-utils */

/*! ./web-mercator-viewport */

/*! ./zIndex */

/*! @babel/runtime/helpers/esm/assertThisInitialized */

/*! @babel/runtime/helpers/esm/classCallCheck */

/*! @babel/runtime/helpers/esm/createClass */

/*! @babel/runtime/helpers/esm/defineProperty */

/*! @babel/runtime/helpers/esm/extends */

/*! @babel/runtime/helpers/esm/getPrototypeOf */

/*! @babel/runtime/helpers/esm/inherits */

/*! @babel/runtime/helpers/esm/inheritsLoose */

/*! @babel/runtime/helpers/esm/objectWithoutProperties */

/*! @babel/runtime/helpers/esm/objectWithoutPropertiesLoose */

/*! @babel/runtime/helpers/esm/possibleConstructorReturn */

/*! @babel/runtime/helpers/esm/slicedToArray */

/*! @babel/runtime/helpers/esm/toConsumableArray */

/*! @babel/runtime/helpers/esm/typeof */

/*! @babel/runtime/helpers/typeof */

/*! @material-ui/core */

/*! @material-ui/core/Avatar */

/*! @material-ui/core/Button */

/*! @material-ui/core/Card */

/*! @material-ui/core/CardActions */

/*! @material-ui/core/CardContent */

/*! @material-ui/core/CardMedia */

/*! @material-ui/core/Container */

/*! @material-ui/core/Grid */

/*! @material-ui/core/Link */

/*! @material-ui/core/Typography */

/*! @material-ui/core/styles */

/*! @material-ui/styles */

/*! @material-ui/system */

/*! @material-ui/utils */

/*! @math.gl/web-mercator */

/*! Hammer.JS - v2.0.7 - 2016-04-22
 * http://hammerjs.github.io/
 *
 * Copyright (c) 2016 Jorik Tangelder;
 * Licensed under the MIT license */

/*! clsx */

/*! css-vendor */

/*! gl-matrix/mat4 */

/*! gl-matrix/vec2 */

/*! gl-matrix/vec3 */

/*! gl-matrix/vec4 */

/*! hammerjs */

/*! history */

/*! hoist-non-react-statics */

/*! hyphenate-style-name */

/*! is-in-browser */

/*! isarray */

/*! jss */

/*! jss-plugin-camel-case */

/*! jss-plugin-default-unit */

/*! jss-plugin-global */

/*! jss-plugin-nested */

/*! jss-plugin-props-sort */

/*! jss-plugin-rule-value-function */

/*! jss-plugin-vendor-prefixer */

/*! mapbox-gl */

/*! mini-create-react-context */

/*! mjolnir.js */

/*! object-assign */

/*! path-to-regexp */

/*! prop-types */

/*! react */

/*! react-dom */

/*! react-is */

/*! react-map-gl */

/*! react-router */

/*! react-router-dom */

/*! react-transition-group */

/*! resize-observer-polyfill */

/*! resolve-pathname */

/*! scheduler */

/*! tiny-invariant */

/*! tiny-warning */

/*! value-equal */

/*! viewport-mercator-project */

/*!**********************!*\
  !*** ./src/index.js ***!
  \**********************/

/*!*******************************!*\
  !*** ./src/components/App.js ***!
  \*******************************/

/*!*********************************!*\
  !*** ./src/components/OSMap.js ***!
  \*********************************/

/*!***********************************!*\
  !*** ./src/components/DemoMap.js ***!
  \***********************************/

/*!***********************************!*\
  !*** ./src/components/InfoMap.js ***!
  \***********************************/

/*!************************************!*\
  !*** ./src/components/HomePage.js ***!
  \************************************/

/*!************************************!*\
  !*** ./src/components/OSRivers.js ***!
  \************************************/

/*!*************************************!*\
  !*** ./src/components/ChooseMap.js ***!
  \*************************************/

/*!**************************************!*\
  !*** ../node_modules/react/index.js ***!
  \**************************************/

/*!***************************************!*\
  !*** ./node_modules/isarray/index.js ***!
  \***************************************/

/*!******************************************!*\
  !*** ../node_modules/hammerjs/hammer.js ***!
  \******************************************/

/*!******************************************!*\
  !*** ../node_modules/react-dom/index.js ***!
  \******************************************/

/*!******************************************!*\
  !*** ../node_modules/scheduler/index.js ***!
  \******************************************/

/*!******************************************!*\
  !*** ./node_modules/clsx/dist/clsx.m.js ***!
  \******************************************/

/*!******************************************!*\
  !*** ./node_modules/jss/dist/jss.esm.js ***!
  \******************************************/

/*!******************************************!*\
  !*** ./node_modules/prop-types/index.js ***!
  \******************************************/

/*!*******************************************!*\
  !*** ../node_modules/prop-types/index.js ***!
  \*******************************************/

/*!*********************************************!*\
  !*** ../node_modules/gl-matrix/esm/mat4.js ***!
  \*********************************************/

/*!*********************************************!*\
  !*** ../node_modules/gl-matrix/esm/vec2.js ***!
  \*********************************************/

/*!*********************************************!*\
  !*** ../node_modules/gl-matrix/esm/vec3.js ***!
  \*********************************************/

/*!*********************************************!*\
  !*** ../node_modules/gl-matrix/esm/vec4.js ***!
  \*********************************************/

/*!*********************************************!*\
  !*** ./node_modules/history/esm/history.js ***!
  \*********************************************/

/*!**********************************************!*\
  !*** ../node_modules/object-assign/index.js ***!
  \**********************************************/

/*!**********************************************!*\
  !*** ./node_modules/path-to-regexp/index.js ***!
  \**********************************************/

/*!***********************************************!*\
  !*** ../node_modules/gl-matrix/esm/common.js ***!
  \***********************************************/

/*!***************************************************!*\
  !*** ../node_modules/mapbox-gl/dist/mapbox-gl.js ***!
  \***************************************************/

/*!***************************************************!*\
  !*** ./node_modules/is-in-browser/dist/module.js ***!
  \***************************************************/

/*!****************************************************!*\
  !*** ../node_modules/mjolnir.js/dist/esm/index.js ***!
  \****************************************************/

/*!****************************************************!*\
  !*** ./node_modules/hyphenate-style-name/index.js ***!
  \****************************************************/

/*!*****************************************************!*\
  !*** ./node_modules/value-equal/esm/value-equal.js ***!
  \*****************************************************/

/*!******************************************************!*\
  !*** ../node_modules/react-map-gl/dist/esm/index.js ***!
  \******************************************************/

/*!*******************************************************!*\
  !*** ./node_modules/@material-ui/system/esm/merge.js ***!
  \*******************************************************/

/*!*******************************************************!*\
  !*** ./node_modules/react-router/esm/react-router.js ***!
  \*******************************************************/

/*!********************************************************!*\
  !*** ../node_modules/mjolnir.js/dist/esm/constants.js ***!
  \********************************************************/

/*!********************************************************!*\
  !*** ./node_modules/css-vendor/dist/css-vendor.esm.js ***!
  \********************************************************/

/*!*********************************************************!*\
  !*** ../node_modules/react/cjs/react.production.min.js ***!
  \*********************************************************/

/*!*********************************************************!*\
  !*** ./node_modules/@material-ui/core/esm/Card/Card.js ***!
  \*********************************************************/

/*!*********************************************************!*\
  !*** ./node_modules/@material-ui/core/esm/Grid/Grid.js ***!
  \*********************************************************/

/*!*********************************************************!*\
  !*** ./node_modules/@material-ui/core/esm/Link/Link.js ***!
  \*********************************************************/

/*!*********************************************************!*\
  !*** ./node_modules/@material-ui/system/esm/memoize.js ***!
  \*********************************************************/

/*!*********************************************************!*\
  !*** ./node_modules/@material-ui/system/esm/spacing.js ***!
  \*********************************************************/

/*!**********************************************************!*\
  !*** ./node_modules/@material-ui/core/esm/colors/red.js ***!
  \**********************************************************/

/*!**********************************************************!*\
  !*** ./node_modules/@material-ui/utils/esm/deepmerge.js ***!
  \**********************************************************/

/*!***********************************************************!*\
  !*** ../node_modules/viewport-mercator-project/module.js ***!
  \***********************************************************/

/*!***********************************************************!*\
  !*** ./node_modules/@material-ui/core/esm/Paper/Paper.js ***!
  \***********************************************************/

/*!***********************************************************!*\
  !*** ./node_modules/@material-ui/core/esm/colors/blue.js ***!
  \***********************************************************/

/*!***********************************************************!*\
  !*** ./node_modules/@material-ui/core/esm/colors/grey.js ***!
  \***********************************************************/

/*!***********************************************************!*\
  !*** ./node_modules/@material-ui/core/esm/colors/pink.js ***!
  \***********************************************************/

/*!************************************************************!*\
  !*** ../node_modules/@babel/runtime/helpers/esm/typeof.js ***!
  \************************************************************/

/*!************************************************************!*\
  !*** ../node_modules/mjolnir.js/dist/esm/event-manager.js ***!
  \************************************************************/

/*!************************************************************!*\
  !*** ../node_modules/mjolnir.js/dist/esm/utils/globals.js ***!
  \************************************************************/

/*!************************************************************!*\
  !*** ./node_modules/@material-ui/core/esm/colors/green.js ***!
  \************************************************************/

/*!************************************************************!*\
  !*** ./node_modules/@material-ui/core/esm/styles/shape.js ***!
  \************************************************************/

/*!************************************************************!*\
  !*** ./node_modules/@material-ui/core/esm/utils/setRef.js ***!
  \************************************************************/

/*!************************************************************!*\
  !*** ./node_modules/tiny-warning/dist/tiny-warning.esm.js ***!
  \************************************************************/

/*!*************************************************************!*\
  !*** ../node_modules/@babel/runtime/helpers/esm/extends.js ***!
  \*************************************************************/

/*!*************************************************************!*\
  !*** ../node_modules/react-map-gl/dist/esm/utils/assert.js ***!
  \*************************************************************/

/*!*************************************************************!*\
  !*** ./node_modules/@material-ui/core/esm/Avatar/Avatar.js ***!
  \*************************************************************/

/*!*************************************************************!*\
  !*** ./node_modules/@material-ui/core/esm/Button/Button.js ***!
  \*************************************************************/

/*!*************************************************************!*\
  !*** ./node_modules/@material-ui/core/esm/colors/common.js ***!
  \*************************************************************/

/*!*************************************************************!*\
  !*** ./node_modules/@material-ui/core/esm/colors/indigo.js ***!
  \*************************************************************/

/*!*************************************************************!*\
  !*** ./node_modules/@material-ui/core/esm/colors/orange.js ***!
  \*************************************************************/

/*!*************************************************************!*\
  !*** ./node_modules/@material-ui/core/esm/styles/zIndex.js ***!
  \*************************************************************/

/*!*************************************************************!*\
  !*** ./node_modules/@material-ui/system/esm/breakpoints.js ***!
  \*************************************************************/

/*!*************************************************************!*\
  !*** ./node_modules/prop-types/factoryWithThrowingShims.js ***!
  \*************************************************************/

/*!*************************************************************!*\
  !*** ./node_modules/prop-types/lib/ReactPropTypesSecret.js ***!
  \*************************************************************/

/*!**************************************************************!*\
  !*** ../node_modules/@babel/runtime/helpers/esm/inherits.js ***!
  \**************************************************************/

/*!**************************************************************!*\
  !*** ../node_modules/prop-types/factoryWithThrowingShims.js ***!
  \**************************************************************/

/*!**************************************************************!*\
  !*** ../node_modules/prop-types/lib/ReactPropTypesSecret.js ***!
  \**************************************************************/

/*!**************************************************************!*\
  !*** ../node_modules/react-map-gl/dist/esm/mapbox/mapbox.js ***!
  \**************************************************************/

/*!**************************************************************!*\
  !*** ../node_modules/react-map-gl/dist/esm/utils/globals.js ***!
  \**************************************************************/

/*!**************************************************************!*\
  !*** ../node_modules/react-map-gl/dist/esm/utils/version.js ***!
  \**************************************************************/

/*!**************************************************************!*\
  !*** ./node_modules/@material-ui/core/esm/styles/shadows.js ***!
  \**************************************************************/

/*!***************************************************************!*\
  !*** ../node_modules/@math.gl/web-mercator/dist/esm/index.js ***!
  \***************************************************************/

/*!***************************************************************!*\
  !*** ../node_modules/mjolnir.js/dist/esm/inputs/key-input.js ***!
  \***************************************************************/

/*!***************************************************************!*\
  !*** ./node_modules/@babel/runtime/helpers/typeof/_index.mjs ***!
  \***************************************************************/

/*!***************************************************************!*\
  !*** ./node_modules/@material-ui/core/esm/SvgIcon/SvgIcon.js ***!
  \***************************************************************/

/*!***************************************************************!*\
  !*** ./node_modules/react-router-dom/esm/react-router-dom.js ***!
  \***************************************************************/

/*!***************************************************************!*\
  !*** ./node_modules/resolve-pathname/esm/resolve-pathname.js ***!
  \***************************************************************/

/*!****************************************************************!*\
  !*** ../node_modules/@math.gl/web-mercator/dist/esm/assert.js ***!
  \****************************************************************/

/*!****************************************************************!*\
  !*** ../node_modules/mjolnir.js/dist/esm/inputs/move-input.js ***!
  \****************************************************************/

/*!****************************************************************!*\
  !*** ../node_modules/mjolnir.js/dist/esm/utils/event-utils.js ***!
  \****************************************************************/

/*!****************************************************************!*\
  !*** ../node_modules/react-map-gl/dist/esm/utils/map-state.js ***!
  \****************************************************************/

/*!****************************************************************!*\
  !*** ./node_modules/@babel/runtime/helpers/extends/_index.mjs ***!
  \****************************************************************/

/*!****************************************************************!*\
  !*** ./node_modules/@material-ui/core/esm/utils/capitalize.js ***!
  \****************************************************************/

/*!****************************************************************!*\
  !*** ./node_modules/@material-ui/core/esm/utils/useForkRef.js ***!
  \****************************************************************/

/*!****************************************************************!*\
  !*** ./node_modules/tiny-invariant/dist/tiny-invariant.esm.js ***!
  \****************************************************************/

/*!*****************************************************************!*\
  !*** ../node_modules/@babel/runtime/helpers/esm/createClass.js ***!
  \*****************************************************************/

/*!*****************************************************************!*\
  !*** ../node_modules/mjolnir.js/dist/esm/inputs/wheel-input.js ***!
  \*****************************************************************/

/*!*****************************************************************!*\
  !*** ../node_modules/react-dom/cjs/react-dom.production.min.js ***!
  \*****************************************************************/

/*!*****************************************************************!*\
  !*** ../node_modules/react-map-gl/dist/esm/components/layer.js ***!
  \*****************************************************************/

/*!*****************************************************************!*\
  !*** ../node_modules/react-map-gl/dist/esm/components/popup.js ***!
  \*****************************************************************/

/*!*****************************************************************!*\
  !*** ../node_modules/react-map-gl/dist/esm/utils/deep-equal.js ***!
  \*****************************************************************/

/*!*****************************************************************!*\
  !*** ../node_modules/react-map-gl/dist/esm/utils/math-utils.js ***!
  \*****************************************************************/

/*!*****************************************************************!*\
  !*** ../node_modules/scheduler/cjs/scheduler.production.min.js ***!
  \*****************************************************************/

/*!*****************************************************************!*\
  !*** ./node_modules/@material-ui/core/esm/ButtonBase/Ripple.js ***!
  \*****************************************************************/

/*!*****************************************************************!*\
  !*** ./node_modules/@material-ui/core/esm/styles/makeStyles.js ***!
  \*****************************************************************/

/*!*****************************************************************!*\
  !*** ./node_modules/@material-ui/core/esm/styles/withStyles.js ***!
  \*****************************************************************/

/*!******************************************************************!*\
  !*** ../node_modules/react-map-gl/dist/esm/components/marker.js ***!
  \******************************************************************/

/*!******************************************************************!*\
  !*** ../node_modules/react-map-gl/dist/esm/components/source.js ***!
  \******************************************************************/

/*!******************************************************************!*\
  !*** ../node_modules/react-map-gl/dist/esm/utils/crisp-pixel.js ***!
  \******************************************************************/

/*!******************************************************************!*\
  !*** ../node_modules/react-map-gl/dist/esm/utils/style-utils.js ***!
  \******************************************************************/

/*!******************************************************************!*\
  !*** ./node_modules/@material-ui/core/esm/styles/transitions.js ***!
  \******************************************************************/

/*!******************************************************************!*\
  !*** ./node_modules/mini-create-react-context/dist/esm/index.js ***!
  \******************************************************************/

/*!******************************************************************!*\
  !*** ./node_modules/react-router/node_modules/react-is/index.js ***!
  \******************************************************************/

/*!*******************************************************************!*\
  !*** ../node_modules/@babel/runtime/helpers/esm/slicedToArray.js ***!
  \*******************************************************************/

/*!*******************************************************************!*\
  !*** ../node_modules/mjolnir.js/dist/esm/utils/hammer.browser.js ***!
  \*******************************************************************/

/*!*******************************************************************!*\
  !*** ./node_modules/@material-ui/core/esm/CardMedia/CardMedia.js ***!
  \*******************************************************************/

/*!*******************************************************************!*\
  !*** ./node_modules/@material-ui/core/esm/Container/Container.js ***!
  \*******************************************************************/

/*!*******************************************************************!*\
  !*** ./node_modules/@material-ui/core/esm/styles/createMixins.js ***!
  \*******************************************************************/

/*!*******************************************************************!*\
  !*** ./node_modules/@material-ui/core/esm/styles/defaultTheme.js ***!
  \*******************************************************************/

/*!*******************************************************************!*\
  !*** ./node_modules/@material-ui/core/esm/utils/createSvgIcon.js ***!
  \*******************************************************************/

/*!*******************************************************************!*\
  !*** ./node_modules/@material-ui/styles/esm/useTheme/useTheme.js ***!
  \*******************************************************************/

/*!********************************************************************!*\
  !*** ../node_modules/@babel/runtime/helpers/esm/arrayWithHoles.js ***!
  \********************************************************************/

/*!********************************************************************!*\
  !*** ../node_modules/@babel/runtime/helpers/esm/classCallCheck.js ***!
  \********************************************************************/

/*!********************************************************************!*\
  !*** ../node_modules/@babel/runtime/helpers/esm/defineProperty.js ***!
  \********************************************************************/

/*!********************************************************************!*\
  !*** ../node_modules/@babel/runtime/helpers/esm/getPrototypeOf.js ***!
  \********************************************************************/

/*!********************************************************************!*\
  !*** ../node_modules/@babel/runtime/helpers/esm/setPrototypeOf.js ***!
  \********************************************************************/

/*!********************************************************************!*\
  !*** ../node_modules/@math.gl/web-mercator/dist/esm/fit-bounds.js ***!
  \********************************************************************/

/*!********************************************************************!*\
  !*** ../node_modules/@math.gl/web-mercator/dist/esm/get-bounds.js ***!
  \********************************************************************/

/*!********************************************************************!*\
  !*** ../node_modules/@math.gl/web-mercator/dist/esm/math-utils.js ***!
  \********************************************************************/

/*!********************************************************************!*\
  !*** ../node_modules/mjolnir.js/dist/esm/utils/event-registrar.js ***!
  \********************************************************************/

/*!********************************************************************!*\
  !*** ./node_modules/@babel/runtime/helpers/createClass/_index.mjs ***!
  \********************************************************************/

/*!********************************************************************!*\
  !*** ./node_modules/@material-ui/core/esm/styles/createPalette.js ***!
  \********************************************************************/

/*!********************************************************************!*\
  !*** ./node_modules/@material-ui/core/esm/styles/createSpacing.js ***!
  \********************************************************************/

/*!********************************************************************!*\
  !*** ./node_modules/react-transition-group/esm/TransitionGroup.js ***!
  \********************************************************************/

/*!*********************************************************************!*\
  !*** ../node_modules/@babel/runtime/helpers/esm/iterableToArray.js ***!
  \*********************************************************************/

/*!*********************************************************************!*\
  !*** ../node_modules/@babel/runtime/helpers/esm/nonIterableRest.js ***!
  \*********************************************************************/

/*!*********************************************************************!*\
  !*** ../node_modules/mjolnir.js/dist/esm/utils/hammer-overrides.js ***!
  \*********************************************************************/

/*!*********************************************************************!*\
  !*** ../node_modules/react-map-gl/dist/esm/overlays/svg-overlay.js ***!
  \*********************************************************************/

/*!*********************************************************************!*\
  !*** ../node_modules/react-map-gl/dist/esm/utils/map-controller.js ***!
  \*********************************************************************/

/*!*********************************************************************!*\
  !*** ./node_modules/@material-ui/core/esm/ButtonBase/ButtonBase.js ***!
  \*********************************************************************/

/*!*********************************************************************!*\
  !*** ./node_modules/@material-ui/core/esm/Typography/Typography.js ***!
  \*********************************************************************/

/*!*********************************************************************!*\
  !*** ./node_modules/@material-ui/core/esm/styles/createMuiTheme.js ***!
  \*********************************************************************/

/*!*********************************************************************!*\
  !*** ./node_modules/@material-ui/styles/esm/jssPreset/jssPreset.js ***!
  \*********************************************************************/

/*!**********************************************************************!*\
  !*** ../node_modules/@babel/runtime/helpers/esm/arrayLikeToArray.js ***!
  \**********************************************************************/

/*!**********************************************************************!*\
  !*** ../node_modules/react-map-gl/dist/esm/components/static-map.js ***!
  \**********************************************************************/

/*!**********************************************************************!*\
  !*** ../node_modules/react-map-gl/dist/esm/overlays/html-overlay.js ***!
  \**********************************************************************/

/*!**********************************************************************!*\
  !*** ../node_modules/react-map-gl/dist/esm/utils/geolocate-utils.js ***!
  \**********************************************************************/

/*!**********************************************************************!*\
  !*** ../node_modules/react-map-gl/dist/esm/utils/map-constraints.js ***!
  \**********************************************************************/

/*!**********************************************************************!*\
  !*** ./node_modules/@babel/runtime/helpers/inheritsLoose/_index.mjs ***!
  \**********************************************************************/

/*!**********************************************************************!*\
  !*** ./node_modules/@babel/runtime/helpers/slicedToArray/_index.mjs ***!
  \**********************************************************************/

/*!**********************************************************************!*\
  !*** ./node_modules/@material-ui/core/esm/ButtonBase/TouchRipple.js ***!
  \**********************************************************************/

/*!**********************************************************************!*\
  !*** ./node_modules/@material-ui/core/esm/utils/useEventCallback.js ***!
  \**********************************************************************/

/*!**********************************************************************!*\
  !*** ./node_modules/@material-ui/styles/esm/ThemeProvider/nested.js ***!
  \**********************************************************************/

/*!**********************************************************************!*\
  !*** ./node_modules/@material-ui/utils/esm/formatMuiErrorMessage.js ***!
  \**********************************************************************/

/*!**********************************************************************!*\
  !*** ./node_modules/jss-plugin-global/dist/jss-plugin-global.esm.js ***!
  \**********************************************************************/

/*!**********************************************************************!*\
  !*** ./node_modules/jss-plugin-nested/dist/jss-plugin-nested.esm.js ***!
  \**********************************************************************/

/*!***********************************************************************!*\
  !*** ../node_modules/@babel/runtime/helpers/esm/arrayWithoutHoles.js ***!
  \***********************************************************************/

/*!***********************************************************************!*\
  !*** ../node_modules/@babel/runtime/helpers/esm/nonIterableSpread.js ***!
  \***********************************************************************/

/*!***********************************************************************!*\
  !*** ../node_modules/@babel/runtime/helpers/esm/toConsumableArray.js ***!
  \***********************************************************************/

/*!***********************************************************************!*\
  !*** ../node_modules/mjolnir.js/dist/esm/inputs/contextmenu-input.js ***!
  \***********************************************************************/

/*!***********************************************************************!*\
  !*** ../node_modules/react-map-gl/dist/esm/components/map-context.js ***!
  \***********************************************************************/

/*!***********************************************************************!*\
  !*** ../node_modules/react-map-gl/dist/esm/utils/dynamic-position.js ***!
  \***********************************************************************/

/*!***********************************************************************!*\
  !*** ../node_modules/react-map-gl/dist/esm/utils/mapboxgl.browser.js ***!
  \***********************************************************************/

/*!***********************************************************************!*\
  !*** ../node_modules/react-map-gl/dist/esm/utils/transition/index.js ***!
  \***********************************************************************/

/*!***********************************************************************!*\
  !*** ./node_modules/@babel/runtime/helpers/arrayWithHoles/_index.mjs ***!
  \***********************************************************************/

/*!***********************************************************************!*\
  !*** ./node_modules/@babel/runtime/helpers/defineProperty/_index.mjs ***!
  \***********************************************************************/

/*!***********************************************************************!*\
  !*** ./node_modules/@babel/runtime/helpers/setPrototypeOf/_index.mjs ***!
  \***********************************************************************/

/*!***********************************************************************!*\
  !*** ./node_modules/@material-ui/core/esm/CardActions/CardActions.js ***!
  \***********************************************************************/

/*!***********************************************************************!*\
  !*** ./node_modules/@material-ui/core/esm/CardContent/CardContent.js ***!
  \***********************************************************************/

/*!***********************************************************************!*\
  !*** ./node_modules/@material-ui/core/esm/styles/colorManipulator.js ***!
  \***********************************************************************/

/*!***********************************************************************!*\
  !*** ./node_modules/@material-ui/core/esm/styles/createTypography.js ***!
  \***********************************************************************/

/*!***********************************************************************!*\
  !*** ./node_modules/@material-ui/core/esm/utils/useIsFocusVisible.js ***!
  \***********************************************************************/

/*!***********************************************************************!*\
  !*** ./node_modules/@material-ui/styles/esm/makeStyles/makeStyles.js ***!
  \***********************************************************************/

/*!***********************************************************************!*\
  !*** ./node_modules/@material-ui/styles/esm/useTheme/ThemeContext.js ***!
  \***********************************************************************/

/*!***********************************************************************!*\
  !*** ./node_modules/@material-ui/styles/esm/withStyles/withStyles.js ***!
  \***********************************************************************/

/*!***********************************************************************!*\
  !*** ./node_modules/react-transition-group/esm/utils/ChildMapping.js ***!
  \***********************************************************************/

/*!************************************************************************!*\
  !*** ../node_modules/react-map-gl/dist/esm/components/base-control.js ***!
  \************************************************************************/

/*!************************************************************************!*\
  !*** ../node_modules/react-map-gl/dist/esm/overlays/canvas-overlay.js ***!
  \************************************************************************/

/*!************************************************************************!*\
  !*** ./node_modules/@babel/runtime/helpers/iterableToArray/_index.mjs ***!
  \************************************************************************/

/*!************************************************************************!*\
  !*** ./node_modules/@babel/runtime/helpers/nonIterableRest/_index.mjs ***!
  \************************************************************************/

/*!************************************************************************!*\
  !*** ./node_modules/@material-ui/core/esm/styles/createBreakpoints.js ***!
  \************************************************************************/

/*!*************************************************************************!*\
  !*** ../node_modules/@math.gl/web-mercator/dist/esm/fly-to-viewport.js ***!
  \*************************************************************************/

/*!*************************************************************************!*\
  !*** ../node_modules/react-map-gl/dist/esm/components/scale-control.js ***!
  \*************************************************************************/

/*!*************************************************************************!*\
  !*** ../node_modules/react-map-gl/dist/esm/utils/transition-manager.js ***!
  \*************************************************************************/

/*!*************************************************************************!*\
  !*** ./node_modules/@babel/runtime/helpers/arrayLikeToArray/_index.mjs ***!
  \*************************************************************************/

/*!*************************************************************************!*\
  !*** ./node_modules/@material-ui/core/esm/internal/svg-icons/Person.js ***!
  \*************************************************************************/

/*!*************************************************************************!*\
  !*** ./node_modules/@material-ui/styles/esm/makeStyles/indexCounter.js ***!
  \*************************************************************************/

/*!**************************************************************************!*\
  !*** ../node_modules/@babel/runtime/helpers/esm/iterableToArrayLimit.js ***!
  \**************************************************************************/

/*!**************************************************************************!*\
  !*** ../node_modules/react-map-gl/dist/esm/utils/set-rtl-text-plugin.js ***!
  \**************************************************************************/

/*!**************************************************************************!*\
  !*** ../node_modules/resize-observer-polyfill/dist/ResizeObserver.es.js ***!
  \**************************************************************************/

/*!**************************************************************************!*\
  !*** ./node_modules/@babel/runtime/helpers/arrayWithoutHoles/_index.mjs ***!
  \**************************************************************************/

/*!**************************************************************************!*\
  !*** ./node_modules/@babel/runtime/helpers/nonIterableSpread/_index.mjs ***!
  \**************************************************************************/

/*!**************************************************************************!*\
  !*** ./node_modules/@babel/runtime/helpers/toConsumableArray/_index.mjs ***!
  \**************************************************************************/

/*!**************************************************************************!*\
  !*** ./node_modules/@material-ui/styles/esm/makeStyles/multiKeyStore.js ***!
  \**************************************************************************/

/*!***************************************************************************!*\
  !*** ../node_modules/@babel/runtime/helpers/esm/assertThisInitialized.js ***!
  \***************************************************************************/

/*!***************************************************************************!*\
  !*** ../node_modules/react-map-gl/dist/esm/components/interactive-map.js ***!
  \***************************************************************************/

/*!***************************************************************************!*\
  !*** ../node_modules/react-map-gl/dist/esm/components/use-map-control.js ***!
  \***************************************************************************/

/*!***************************************************************************!*\
  !*** ./node_modules/@material-ui/styles/esm/mergeClasses/mergeClasses.js ***!
  \***************************************************************************/

/*!***************************************************************************!*\
  !*** ./node_modules/react-transition-group/esm/TransitionGroupContext.js ***!
  \***************************************************************************/

/*!****************************************************************************!*\
  !*** ../node_modules/@math.gl/web-mercator/dist/esm/web-mercator-utils.js ***!
  \****************************************************************************/

/*!****************************************************************************!*\
  !*** ./node_modules/@material-ui/styles/esm/getStylesCreator/noopTheme.js ***!
  \****************************************************************************/

/*!*****************************************************************************!*\
  !*** ../node_modules/@babel/runtime/helpers/esm/objectWithoutProperties.js ***!
  \*****************************************************************************/

/*!*****************************************************************************!*\
  !*** ../node_modules/react-map-gl/dist/esm/components/draggable-control.js ***!
  \*****************************************************************************/

/*!*****************************************************************************!*\
  !*** ../node_modules/react-map-gl/dist/esm/components/geolocate-control.js ***!
  \*****************************************************************************/

/*!*****************************************************************************!*\
  !*** ./node_modules/@babel/runtime/helpers/iterableToArrayLimit/_index.mjs ***!
  \*****************************************************************************/

/*!*****************************************************************************!*\
  !*** ./node_modules/@material-ui/styles/esm/getThemeProps/getThemeProps.js ***!
  \*****************************************************************************/

/*!*****************************************************************************!*\
  !*** ./node_modules/hoist-non-react-statics/node_modules/react-is/index.js ***!
  \*****************************************************************************/

/*!******************************************************************************!*\
  !*** ../node_modules/react-map-gl/dist/esm/components/fullscreen-control.js ***!
  \******************************************************************************/

/*!******************************************************************************!*\
  !*** ../node_modules/react-map-gl/dist/esm/components/navigation-control.js ***!
  \******************************************************************************/

/*!******************************************************************************!*\
  !*** ./node_modules/@babel/runtime/helpers/assertThisInitialized/_index.mjs ***!
  \******************************************************************************/

/*!******************************************************************************!*\
  !*** ./node_modules/jss-plugin-camel-case/dist/jss-plugin-camel-case.esm.js ***!
  \******************************************************************************/

/*!******************************************************************************!*\
  !*** ./node_modules/jss-plugin-props-sort/dist/jss-plugin-props-sort.esm.js ***!
  \******************************************************************************/

/*!*******************************************************************************!*\
  !*** ../node_modules/@babel/runtime/helpers/esm/possibleConstructorReturn.js ***!
  \*******************************************************************************/

/*!*******************************************************************************!*\
  !*** ../node_modules/@math.gl/web-mercator/dist/esm/web-mercator-viewport.js ***!
  \*******************************************************************************/

/*!*******************************************************************************!*\
  !*** ../node_modules/react-map-gl/dist/esm/components/attribution-control.js ***!
  \*******************************************************************************/

/*!*******************************************************************************!*\
  !*** ./node_modules/@material-ui/styles/esm/StylesProvider/StylesProvider.js ***!
  \*******************************************************************************/

/*!********************************************************************************!*\
  !*** ../node_modules/@babel/runtime/helpers/esm/unsupportedIterableToArray.js ***!
  \********************************************************************************/

/*!********************************************************************************!*\
  !*** ./node_modules/@babel/runtime/helpers/objectWithoutProperties/_index.mjs ***!
  \********************************************************************************/

/*!**********************************************************************************!*\
  !*** ../node_modules/@babel/runtime/helpers/esm/objectWithoutPropertiesLoose.js ***!
  \**********************************************************************************/

/*!**********************************************************************************!*\
  !*** ../node_modules/@math.gl/web-mercator/dist/esm/normalize-viewport-props.js ***!
  \**********************************************************************************/

/*!**********************************************************************************!*\
  !*** ../node_modules/react-map-gl/dist/esm/utils/transition/transition-utils.js ***!
  \**********************************************************************************/

/*!**********************************************************************************!*\
  !*** ./node_modules/hoist-non-react-statics/dist/hoist-non-react-statics.cjs.js ***!
  \**********************************************************************************/

/*!**********************************************************************************!*\
  !*** ./node_modules/jss-plugin-default-unit/dist/jss-plugin-default-unit.esm.js ***!
  \**********************************************************************************/

/*!***********************************************************************************!*\
  !*** ../node_modules/react-map-gl/dist/esm/utils/use-isomorphic-layout-effect.js ***!
  \***********************************************************************************/

/*!***********************************************************************************!*\
  !*** ./node_modules/@babel/runtime/helpers/unsupportedIterableToArray/_index.mjs ***!
  \***********************************************************************************/

/*!***********************************************************************************!*\
  !*** ./node_modules/@material-ui/styles/esm/getStylesCreator/getStylesCreator.js ***!
  \***********************************************************************************/

/*!*************************************************************************************!*\
  !*** ../node_modules/react-map-gl/dist/esm/utils/transition/linear-interpolator.js ***!
  \*************************************************************************************/

/*!*************************************************************************************!*\
  !*** ./node_modules/@babel/runtime/helpers/objectWithoutPropertiesLoose/_index.mjs ***!
  \*************************************************************************************/

/*!****************************************************************************************!*\
  !*** ./node_modules/jss-plugin-vendor-prefixer/dist/jss-plugin-vendor-prefixer.esm.js ***!
  \****************************************************************************************/

/*!****************************************************************************************!*\
  !*** ./node_modules/react-router/node_modules/react-is/cjs/react-is.production.min.js ***!
  \****************************************************************************************/

/*!*****************************************************************************************!*\
  !*** ../node_modules/react-map-gl/dist/esm/utils/transition/transition-interpolator.js ***!
  \*****************************************************************************************/

/*!**********************************************************************************************!*\
  !*** ../node_modules/react-map-gl/dist/esm/utils/transition/viewport-fly-to-interpolator.js ***!
  \**********************************************************************************************/

/*!************************************************************************************************!*\
  !*** ./node_modules/jss-plugin-rule-value-function/dist/jss-plugin-rule-value-function.esm.js ***!
  \************************************************************************************************/

/*!*************************************************************************************************!*\
  !*** ./node_modules/@material-ui/styles/esm/createGenerateClassName/createGenerateClassName.js ***!
  \*************************************************************************************************/

/*!***************************************************************************************************!*\
  !*** ./node_modules/hoist-non-react-statics/node_modules/react-is/cjs/react-is.production.min.js ***!
  \***************************************************************************************************/

/**
 * A better abstraction over CSS.
 *
 * @copyright Oleg Isonen (Slobodskoi) / Isonen 2014-present
 * @website https://github.com/cssinjs/jss
 * @license MIT
 */

/** @license React v0.20.1
 * scheduler.production.min.js
 *
 * Copyright (c) Facebook, Inc. and its affiliates.
 *
 * This source code is licensed under the MIT license found in the
 * LICENSE file in the root directory of this source tree.
 */

/** @license React v16.13.1
 * react-is.production.min.js
 *
 * Copyright (c) Facebook, Inc. and its affiliates.
 *
 * This source code is licensed under the MIT license found in the
 * LICENSE file in the root directory of this source tree.
 */

/** @license React v17.0.1
 * react-dom.production.min.js
 *
 * Copyright (c) Facebook, Inc. and its affiliates.
 *
 * This source code is licensed under the MIT license found in the
 * LICENSE file in the root directory of this source tree.
 */

/** @license React v17.0.1
 * react.production.min.js
 *
 * Copyright (c) Facebook, Inc. and its affiliates.
 *
 * This source code is licensed under the MIT license found in the
 * LICENSE file in the root directory of this source tree.
 */
